{
  "project_info": {
    "project_number": "1020906499106",
    "project_id": "task-news",
    "storage_bucket": "task-news.appspot.com"
  },
  "client": [
    {
      "client_info": {
        "mobilesdk_app_id": "1:1020906499106:android:ce9f0247783edd9e2a6e7b",
        "android_client_info": {
          "package_name": "uz.infinityandro.news"
        }
      },
      "oauth_client": [
        {
          "client_id": "1020906499106-r9ljtntbouprnnultc3e8j64g8osoq7p.apps.googleusercontent.com",
          "client_type": 3
        }
      ],
      "api_key": [
        {
          "current_key": "AIzaSyDBgzcrDSXOonvc5-j1Njz-l4FSDANp544"
        }
      ],
      "services": {
        "appinvite_service": {
          "other_platform_oauth_client": [
            {
              "client_id": "1020906499106-r9ljtntbouprnnultc3e8j64g8osoq7p.apps.googleusercontent.com",
              "client_type": 3
            }
          ]
        }
      }
    }
  ],
  "configuration_version": "1"
}